{
  "manifest_version": 3,
  "name": "VŠE+",
  "description": "Web extension adding features to the insis information system (Prague University of Economics and Business).",
  "homepage_url": "https://github.com/vse-plus",
  "version": "2.3",
  "action": {
    "default_popup": "popup.html",
    "default_title": "VŠE+"
  },
  "icons": {
    "64": "icons/64.png",
    "128": "icons/128.png",
    "256": "icons/256.png"
  },
  "content_scripts": [
    {
      "matches": [
        "https://insis.vse.cz/**"
      ],
      "js": [
        "js/vendor.js",
        "js/content_script.js"
      ],
      "css": [
        "style.css"
      ]
    }
  ],
  "permissions": [
    "storage"
  ],
  "host_permissions": [
    "https://insis.vse.cz/**"
  ]
}